{ 
    "_id" : ObjectId("5f574da6d319cd5e8c5e6a6b"), 
    "marca" : "VOLVO", 
    "placa" : "456-TRE", 
    "empresa" : DBRef("transporte", ObjectId("5ed89a59c2dc60005cabe5a6")), 
    "_class" : "com.tottus.suull.entity.Automovil"
}
{ 
    "_id" : ObjectId("5f574db5d319cd5e8c5e6a6c"), 
    "marca" : "NISSAN", 
    "placa" : "345-ERT", 
    "empresa" : DBRef("transporte", ObjectId("5f0868627a6aa4189fdcc1ec")), 
    "_class" : "com.tottus.suull.entity.Automovil"
}
{ 
    "_id" : ObjectId("5f574dcad319cd5e8c5e6a6d"), 
    "marca" : "KIA RIO", 
    "placa" : "456-RTY", 
    "empresa" : DBRef("transporte", ObjectId("5ed89a7bc2dc60005cabe5a7")), 
    "_class" : "com.tottus.suull.entity.Automovil"
}
